18.FSK_Demodulate/prj/simulation/questa/fsk_demodulate.vcd
$date
	Sun Apr 27 19:42:11 2025
$end
$version
	Questa Intel Starter FPGA Edition Version 2024.3
$end
$timescale
	1ps
$end

$scope module fsk_demodulate_tb $end
$var reg 1 ! clk $end
$var reg 1 " rst_n $end
$var reg 8 # adc_data [7:0] $end
$var wire 1 $ demod_bit $end
$var real 64 % time_var $end

$scope module uut $end
$var parameter 8 & THRESHOLD $end
$var parameter 8 ' COUNT_MAX $end
$var parameter 8 ( HYSTERESIS $end
$var wire 1 ) clk $end
$var wire 1 * rst_n $end
$var wire 1 + adc_data [7] $end
$var wire 1 , adc_data [6] $end
$var wire 1 - adc_data [5] $end
$var wire 1 . adc_data [4] $end
$var wire 1 / adc_data [3] $end
$var wire 1 0 adc_data [2] $end
$var wire 1 1 adc_data [1] $end
$var wire 1 2 adc_data [0] $end
$var reg 1 3 demod_bit $end
$var reg 8 4 prev_sample [7:0] $end
$var reg 8 5 zero_cross_count [7:0] $end
$var reg 8 6 sample_count [7:0] $end
$var reg 1 7 prev_state $end
$upscope $end
$upscope $end
$enddefinitions $end
#0
$dumpvars
0!
0"
b10000000 #
03
b0 4
b0 5
b0 6
07
b110010 &
b1100100 '
b1010 (
r0.01 %
0$
02
01
00
0/
0.
0-
0,
1+
0*
0)
$end
#500
1!
1)
#1000
1"
r0.02 %
0!
1*
0)
#1500
1!
1)
17
b10000000 4
b1 6
#2000
r0.03 %
0!
0)
#2500
1!
1)
b10 6
#3000
r0.04 %
0!
0)
#3500
1!
1)
b11 6
#4000
r0.05 %
0!
0)
#4500
1!
1)
b100 6
#5000
r0.06 %
0!
0)
#5500
1!
1)
b101 6
#6000
r0.07000000000000001 %
0!
0)
#6500
1!
1)
b110 6
#7000
r0.08 %
0!
0)
#7500
1!
1)
b111 6
#8000
r0.09 %
0!
0)
#8500
1!
1)
b1000 6
#9000
r0.09999999999999999 %
0!
0)
#9500
1!
1)
b1001 6
#10000
r0.11 %
0!
0)
#10500
1!
1)
b1010 6
#11000
r0.12 %
0!
0)
#11500
1!
1)
b1011 6
#12000
r0.13 %
0!
0)
#12500
1!
1)
b1100 6
#13000
r0.14 %
0!
0)
#13500
1!
1)
b1101 6
#14000
r0.15 %
0!
0)
#14500
1!
1)
b1110 6
#15000
r0.16 %
0!
0)
#15500
1!
1)
b1111 6
#16000
r0.17 %
0!
0)
#16500
1!
1)
b10000 6
#17000
r0.18 %
0!
0)
#17500
1!
1)
b10001 6
#18000
r0.19 %
0!
0)
#18500
1!
1)
b10010 6
#19000
r0.2 %
0!
0)
#19500
1!
1)
b10011 6
#20000
r0.21 %
0!
0)
#20500
1!
1)
b10100 6
#21000
r0.2200000000000001 %
0!
0)
#21500
1!
1)
b10101 6
#22000
r0.2300000000000001 %
0!
0)
#22500
1!
1)
b10110 6
#23000
r0.2400000000000001 %
0!
0)
#23500
1!
1)
b10111 6
#24000
r0.2500000000000001 %
0!
0)
#24500
1!
1)
b11000 6
#25000
r0.2600000000000001 %
0!
0)
#25500
1!
1)
b11001 6
#26000
r0.2700000000000001 %
0!
0)
#26500
1!
1)
b11010 6
#27000
r0.2800000000000001 %
0!
0)
#27500
1!
1)
b11011 6
#28000
r0.2900000000000001 %
0!
0)
#28500
1!
1)
b11100 6
#29000
r0.3000000000000001 %
0!
0)
#29500
1!
1)
b11101 6
#30000
r0.3100000000000001 %
0!
0)
#30500
1!
1)
b11110 6
#31000
r0.3200000000000001 %
0!
0)
#31500
1!
1)
b11111 6
#32000
r0.3300000000000001 %
0!
0)
#32500
1!
1)
b100000 6
#33000
r0.3400000000000001 %
0!
0)
#33500
1!
1)
b100001 6
#34000
r0.3500000000000001 %
0!
0)
#34500
1!
1)
b100010 6
#35000
r0.3600000000000002 %
0!
0)
#35500
1!
1)
b100011 6
#36000
r0.3700000000000002 %
0!
0)
#36500
1!
1)
b100100 6
#37000
r0.3800000000000002 %
0!
0)
#37500
1!
1)
b100101 6
#38000
r0.3900000000000002 %
0!
0)
#38500
1!
1)
b100110 6
#39000
r0.4000000000000002 %
0!
0)
#39500
1!
1)
b100111 6
#40000
r0.4100000000000002 %
0!
0)
#40500
1!
1)
b101000 6
#41000
r0.4200000000000002 %
0!
0)
#41500
1!
1)
b101001 6
#42000
r0.4300000000000002 %
0!
0)
#42500
1!
1)
b101010 6
#43000
r0.4400000000000002 %
0!
0)
#43500
1!
1)
b101011 6
#44000
r0.4500000000000002 %
0!
0)
#44500
1!
1)
b101100 6
#45000
r0.4600000000000002 %
0!
0)
#45500
1!
1)
b101101 6
#46000
r0.4700000000000003 %
0!
0)
#46500
1!
1)
b101110 6
#47000
r0.4800000000000003 %
0!
0)
#47500
1!
1)
b101111 6
#48000
r0.4900000000000003 %
0!
0)
#48500
1!
1)
b110000 6
#49000
r0.5000000000000002 %
0!
0)
#49500
1!
1)
b110001 6
#50000
r0.5100000000000002 %
0!
0)
#50500
1!
1)
b110010 6
#51000
r0.5200000000000002 %
0!
0)
#51500
1!
1)
b110011 6
#52000
r0.5300000000000002 %
0!
0)
#52500
1!
1)
b110100 6
#53000
r0.5400000000000003 %
0!
0)
#53500
1!
1)
b110101 6
#54000
r0.5500000000000003 %
0!
0)
#54500
1!
1)
b110110 6
#55000
r0.5600000000000003 %
0!
0)
#55500
1!
1)
b110111 6
#56000
r0.5700000000000003 %
0!
0)
#56500
1!
1)
b111000 6
#57000
r0.5800000000000003 %
0!
0)
#57500
1!
1)
b111001 6
#58000
r0.5900000000000003 %
0!
0)
#58500
1!
1)
b111010 6
#59000
r0.6000000000000003 %
0!
0)
#59500
1!
1)
b111011 6
#60000
r0.6100000000000003 %
0!
0)
#60500
1!
1)
b111100 6
#61000
r0.6200000000000003 %
0!
0)
#61500
1!
1)
b111101 6
#62000
r0.6300000000000003 %
0!
0)
#62500
1!
1)
b111110 6
#63000
r0.6400000000000003 %
0!
0)
#63500
1!
1)
b111111 6
#64000
r0.6500000000000004 %
0!
0)
#64500
1!
1)
b1000000 6
#65000
r0.6600000000000004 %
0!
0)
#65500
1!
1)
b1000001 6
#66000
r0.6700000000000004 %
0!
0)
#66500
1!
1)
b1000010 6
#67000
r0.6800000000000004 %
0!
0)
#67500
1!
1)
b1000011 6
#68000
r0.6900000000000004 %
0!
0)
#68500
1!
1)
b1000100 6
#69000
r0.7000000000000004 %
0!
0)
#69500
1!
1)
b1000101 6
#70000
r0.7100000000000004 %
0!
0)
#70500
1!
1)
b1000110 6
#71000
r0.7200000000000004 %
0!
0)
#71500
1!
1)
b1000111 6
#72000
r0.7300000000000004 %
0!
0)
#72500
1!
1)
b1001000 6
#73000
r0.7400000000000004 %
0!
0)
#73500
1!
1)
b1001001 6
#74000
r0.7500000000000004 %
0!
0)
#74500
1!
1)
b1001010 6
#75000
r0.7600000000000005 %
0!
0)
#75500
1!
1)
b1001011 6
#76000
r0.7700000000000005 %
0!
0)
#76500
1!
1)
b1001100 6
#77000
r0.7800000000000005 %
0!
0)
#77500
1!
1)
b1001101 6
#78000
r0.7900000000000005 %
0!
0)
#78500
1!
1)
b1001110 6
#79000
r0.8000000000000005 %
0!
0)
#79500
1!
1)
b1001111 6
#80000
r0.8100000000000005 %
0!
0)
#80500
1!
1)
b1010000 6
#81000
r0.8200000000000005 %
0!
0)
#81500
1!
1)
b1010001 6
#82000
r0.8300000000000005 %
0!
0)
#82500
1!
1)
b1010010 6
#83000
r0.8400000000000005 %
0!
0)
#83500
1!
1)
b1010011 6
#84000
r0.8500000000000005 %
0!
0)
#84500
1!
1)
b1010100 6
#85000
r0.8600000000000005 %
0!
0)
#85500
1!
1)
b1010101 6
#86000
r0.8700000000000006 %
0!
0)
#86500
1!
1)
b1010110 6
#87000
r0.8800000000000006 %
0!
0)
#87500
1!
1)
b1010111 6
#88000
r0.8900000000000006 %
0!
0)
#88500
1!
1)
b1011000 6
#89000
r0.9000000000000006 %
0!
0)
#89500
1!
1)
b1011001 6
#90000
r0.9100000000000006 %
0!
0)
#90500
1!
1)
b1011010 6
#91000
r0.9200000000000006 %
0!
0)
#91500
1!
1)
b1011011 6
#92000
r0.9300000000000006 %
0!
0)
#92500
1!
1)
b1011100 6
#93000
r0.9400000000000006 %
0!
0)
#93500
1!
1)
b1011101 6
#94000
r0.9500000000000006 %
0!
0)
#94500
1!
1)
b1011110 6
#95000
r0.9600000000000006 %
0!
0)
#95500
1!
1)
b1011111 6
#96000
r0.9700000000000006 %
0!
0)
#96500
1!
1)
b1100000 6
#97000
r0.9800000000000006 %
0!
0)
#97500
1!
1)
b1100001 6
#98000
r0.9900000000000007 %
0!
0)
#98500
1!
1)
b1100010 6
#99000
r1.000000000000001 %
0!
0)
#99500
1!
1)
b1100011 6
#100000
r1.010000000000001 %
0!
0)
#100500
1!
1)
b1100100 6
#101000
r1.020000000000001 %
0!
0)
#101500
1!
1)
b0 6
#102000
r1.030000000000001 %
0!
0)
#102500
1!
1)
b1 6
#103000
r1.040000000000001 %
0!
0)
#103500
1!
1)
b10 6
#104000
r1.050000000000001 %
0!
0)
#104500
1!
1)
b11 6
#105000
r1.060000000000001 %
0!
0)
#105500
1!
1)
b100 6
#106000
r1.070000000000001 %
0!
0)
#106500
1!
1)
b101 6
#107000
r1.080000000000001 %
0!
0)
#107500
1!
1)
b110 6
#108000
r1.090000000000001 %
0!
0)
#108500
1!
1)
b111 6
#109000
r1.100000000000001 %
0!
0)
#109500
1!
1)
b1000 6
#110000
r1.110000000000001 %
0!
0)
#110500
1!
1)
b1001 6
#111000
r1.120000000000001 %
0!
0)
#111500
1!
1)
b1010 6
#112000
r1.130000000000001 %
0!
0)
#112500
1!
1)
b1011 6
#113000
r1.140000000000001 %
0!
0)
#113500
1!
1)
b1100 6
#114000
r1.150000000000001 %
0!
0)
#114500
1!
1)
b1101 6
#115000
r1.160000000000001 %
0!
0)
#115500
1!
1)
b1110 6
#116000
r1.170000000000001 %
0!
0)
#116500
1!
1)
b1111 6
#117000
r1.180000000000001 %
0!
0)
#117500
1!
1)
b10000 6
#118000
r1.190000000000001 %
0!
0)
#118500
1!
1)
b10001 6
#119000
r1.200000000000001 %
0!
0)
#119500
1!
1)
b10010 6
#120000
r1.210000000000001 %
0!
0)
#120500
1!
1)
b10011 6
#121000
r1.220000000000001 %
0!
0)
#121500
1!
1)
b10100 6
#122000
r1.230000000000001 %
0!
0)
#122500
1!
1)
b10101 6
#123000
r1.240000000000001 %
0!
0)
#123500
1!
1)
b10110 6
#124000
r1.250000000000001 %
0!
0)
#124500
1!
1)
b10111 6
#125000
r1.260000000000001 %
0!
0)
#125500
1!
1)
b11000 6
#126000
r1.270000000000001 %
0!
0)
#126500
1!
1)
b11001 6
#127000
r1.280000000000001 %
0!
0)
#127500
1!
1)
b11010 6
#128000
r1.290000000000001 %
0!
0)
#128500
1!
1)
b11011 6
#129000
r1.300000000000001 %
0!
0)
#129500
1!
1)
b11100 6
#130000
r1.310000000000001 %
0!
0)
#130500
1!
1)
b11101 6
#131000
r1.320000000000001 %
0!
0)
#131500
1!
1)
b11110 6
#132000
r1.330000000000001 %
0!
0)
#132500
1!
1)
b11111 6
#133000
r1.340000000000001 %
0!
0)
#133500
1!
1)
b100000 6
#134000
r1.350000000000001 %
0!
0)
#134500
1!
1)
b100001 6
#135000
r1.360000000000001 %
0!
0)
#135500
1!
1)
b100010 6
#136000
r1.370000000000001 %
0!
0)
#136500
1!
1)
b100011 6
#137000
r1.380000000000001 %
0!
0)
#137500
1!
1)
b100100 6
#138000
r1.390000000000001 %
0!
0)
#138500
1!
1)
b100101 6
#139000
r1.400000000000001 %
0!
0)
#139500
1!
1)
b100110 6
#140000
r1.410000000000001 %
0!
0)
#140500
1!
1)
b100111 6
#141000
r1.420000000000001 %
0!
0)
#141500
1!
1)
b101000 6
#142000
r1.430000000000001 %
0!
0)
#142500
1!
1)
b101001 6
#143000
r1.440000000000001 %
0!
0)
#143500
1!
1)
b101010 6
#144000
r1.450000000000001 %
0!
0)
#144500
1!
1)
b101011 6
#145000
r1.460000000000001 %
0!
0)
#145500
1!
1)
b101100 6
#146000
r1.470000000000001 %
0!
0)
#146500
1!
1)
b101101 6
#147000
r1.480000000000001 %
0!
0)
#147500
1!
1)
b101110 6
#148000
r1.490000000000001 %
0!
0)
#148500
1!
1)
b101111 6
#149000
r1.500000000000001 %
0!
0)
#149500
1!
1)
b110000 6
#150000
r1.510000000000001 %
0!
0)
#150500
1!
1)
b110001 6
#151000
r1.520000000000001 %
0!
0)
#151500
1!
1)
b110010 6
#152000
r1.530000000000001 %
0!
0)
#152500
1!
1)
b110011 6
#153000
r1.540000000000001 %
0!
0)
#153500
1!
1)
b110100 6
#154000
r1.550000000000001 %
0!
0)
#154500
1!
1)
b110101 6
#155000
r1.560000000000001 %
0!
0)
#155500
1!
1)
b110110 6
#156000
r1.570000000000001 %
0!
0)
#156500
1!
1)
b110111 6
#157000
r1.580000000000001 %
0!
0)
#157500
1!
1)
b111000 6
#158000
r1.590000000000001 %
0!
0)
#158500
1!
1)
b111001 6
#159000
r1.600000000000001 %
0!
0)
#159500
1!
1)
b111010 6
#160000
r1.610000000000001 %
0!
0)
#160500
1!
1)
b111011 6
#161000
r1.620000000000001 %
0!
0)
#161500
1!
1)
b111100 6
#162000
r1.630000000000001 %
0!
0)
#162500
1!
1)
b111101 6
#163000
r1.640000000000001 %
0!
0)
#163500
1!
1)
b111110 6
#164000
r1.650000000000001 %
0!
0)
#164500
1!
1)
b111111 6
#165000
r1.660000000000001 %
0!
0)
#165500
1!
1)
b1000000 6
#166000
r1.670000000000001 %
0!
0)
#166500
1!
1)
b1000001 6
#167000
r1.680000000000001 %
0!
0)
#167500
1!
1)
b1000010 6
#168000
r1.690000000000001 %
0!
0)
#168500
1!
1)
b1000011 6
#169000
r1.700000000000001 %
0!
0)
#169500
1!
1)
b1000100 6
#170000
r1.710000000000001 %
0!
0)
#170500
1!
1)
b1000101 6
#171000
r1.720000000000001 %
0!
0)
#171500
1!
1)
b1000110 6
#172000
r1.730000000000001 %
0!
0)
#172500
1!
1)
b1000111 6
#173000
r1.740000000000001 %
0!
0)
#173500
1!
1)
b1001000 6
#174000
r1.750000000000001 %
0!
0)
#174500
1!
1)
b1001001 6
#175000
r1.760000000000001 %
0!
0)
#175500
1!
1)
b1001010 6
#176000
r1.770000000000001 %
0!
0)
#176500
1!
1)
b1001011 6
#177000
r1.780000000000001 %
0!
0)
#177500
1!
1)
b1001100 6
#178000
r1.790000000000001 %
0!
0)
#178500
1!
1)
b1001101 6
#179000
r1.800000000000001 %
0!
0)
#179500
1!
1)
b1001110 6
#180000
r1.810000000000001 %
0!
0)
#180500
1!
1)
b1001111 6
#181000
r1.820000000000001 %
0!
0)
#181500
1!
1)
b1010000 6
#182000
r1.830000000000001 %
0!
0)
#182500
1!
1)
b1010001 6
#183000
r1.840000000000001 %
0!
0)
#183500
1!
1)
b1010010 6
#184000
r1.850000000000001 %
0!
0)
#184500
1!
1)
b1010011 6
#185000
r1.860000000000001 %
0!
0)
#185500
1!
1)
b1010100 6
#186000
r1.870000000000001 %
0!
0)
#186500
1!
1)
b1010101 6
#187000
r1.880000000000001 %
0!
0)
#187500
1!
1)
b1010110 6
#188000
r1.890000000000001 %
0!
0)
#188500
1!
1)
b1010111 6
#189000
r1.900000000000001 %
0!
0)
#189500
1!
1)
b1011000 6
#190000
r1.910000000000001 %
0!
0)
#190500
1!
1)
b1011001 6
#191000
r1.920000000000001 %
0!
0)
#191500
1!
1)
b1011010 6
#192000
r1.930000000000001 %
0!
0)
#192500
1!
1)
b1011011 6
#193000
r1.940000000000002 %
0!
0)
#193500
1!
1)
b1011100 6
#194000
r1.950000000000002 %
0!
0)
#194500
1!
1)
b1011101 6
#195000
r1.960000000000002 %
0!
0)
#195500
1!
1)
b1011110 6
#196000
r1.970000000000002 %
0!
0)
#196500
1!
1)
b1011111 6
#197000
r1.980000000000002 %
0!
0)
#197500
1!
1)
b1100000 6
#198000
r1.990000000000002 %
0!
0)
#198500
1!
1)
b1100001 6
#199000
r2.000000000000001 %
0!
0)
#199500
1!
1)
b1100010 6
#200000
r2.010000000000001 %
0!
0)
#200500
1!
1)
b1100011 6
#201000
r2.020000000000001 %
0!
0)
#201500
1!
1)
b1100100 6
#202000
r2.030000000000001 %
0!
0)
#202500
1!
1)
b0 6
#203000
r2.04 %
0!
0)
#203500
1!
1)
b1 6
#204000
r2.05 %
0!
0)
#204500
1!
1)
b10 6
#205000
r2.06 %
0!
0)
#205500
1!
1)
b11 6
#206000
r2.07 %
0!
0)
#206500
1!
1)
b100 6
#207000
r2.08 %
0!
0)
#207500
1!
1)
b101 6
#208000
r2.089999999999999 %
0!
0)
#208500
1!
1)
b110 6
#209000
r2.099999999999999 %
0!
0)
#209500
1!
1)
b111 6
#210000
r2.109999999999999 %
0!
0)
#210500
1!
1)
b1000 6
#211000
r2.119999999999999 %
0!
0)
#211500
1!
1)
b1001 6
#212000
r2.129999999999999 %
0!
0)
#212500
1!
1)
b1010 6
#213000
r2.139999999999998 %
0!
0)
#213500
1!
1)
b1011 6
#214000
r2.149999999999998 %
0!
0)
#214500
1!
1)
b1100 6
#215000
r2.159999999999998 %
0!
0)
#215500
1!
1)
b1101 6
#216000
r2.169999999999998 %
0!
0)
#216500
1!
1)
b1110 6
#217000
r2.179999999999997 %
0!
0)
#217500
1!
1)
b1111 6
#218000
r2.189999999999997 %
0!
0)
#218500
1!
1)
b10000 6
#219000
r2.199999999999997 %
0!
0)
#219500
1!
1)
b10001 6
#220000
r2.209999999999997 %
0!
0)
#220500
1!
1)
b10010 6
#221000
r2.219999999999997 %
0!
0)
#221500
1!
1)
b10011 6
#222000
r2.229999999999996 %
0!
0)
#222500
1!
1)
b10100 6
#223000
r2.239999999999996 %
0!
0)
#223500
1!
1)
b10101 6
#224000
r2.249999999999996 %
0!
0)
#224500
1!
1)
b10110 6
#225000
r2.259999999999996 %
0!
0)
#225500
1!
1)
b10111 6
#226000
r2.269999999999996 %
0!
0)
#226500
1!
1)
b11000 6
#227000
r2.279999999999995 %
0!
0)
#227500
1!
1)
b11001 6
#228000
r2.289999999999995 %
0!
0)
#228500
1!
1)
b11010 6
#229000
r2.299999999999995 %
0!
0)
#229500
1!
1)
b11011 6
#230000
r2.309999999999995 %
0!
0)
#230500
1!
1)
b11100 6
#231000
r2.319999999999995 %
0!
0)
#231500
1!
1)
b11101 6
#232000
r2.329999999999994 %
0!
0)
#232500
1!
1)
b11110 6
#233000
r2.339999999999994 %
0!
0)
#233500
1!
1)
b11111 6
#234000
r2.349999999999994 %
0!
0)
#234500
1!
1)
b100000 6
#235000
r2.359999999999994 %
0!
0)
#235500
1!
1)
b100001 6
#236000
r2.369999999999993 %
0!
0)
#236500
1!
1)
b100010 6
#237000
r2.379999999999993 %
0!
0)
#237500
1!
1)
b100011 6
#238000
r2.389999999999993 %
0!
0)
#238500
1!
1)
b100100 6
#239000
r2.399999999999993 %
0!
0)
#239500
1!
1)
b100101 6
#240000
r2.409999999999993 %
0!
0)
#240500
1!
1)
b100110 6
#241000
r2.419999999999992 %
0!
0)
#241500
1!
1)
b100111 6
#242000
r2.429999999999992 %
0!
0)
#242500
1!
1)
b101000 6
#243000
r2.439999999999992 %
0!
0)
#243500
1!
1)
b101001 6
#244000
r2.449999999999992 %
0!
0)
#244500
1!
1)
b101010 6
#245000
r2.459999999999992 %
0!
0)
#245500
1!
1)
b101011 6
#246000
r2.469999999999991 %
0!
0)
#246500
1!
1)
b101100 6
#247000
r2.479999999999991 %
0!
0)
#247500
1!
1)
b101101 6
#248000
r2.489999999999991 %
0!
0)
#248500
1!
1)
b101110 6
#249000
r2.499999999999991 %
0!
0)
#249500
1!
1)
b101111 6
#250000
r2.50999999999999 %
0!
0)
#250500
1!
1)
b110000 6
#251000
r2.51999999999999 %
0!
0)
#251500
1!
1)
b110001 6
#252000
r2.52999999999999 %
0!
0)
#252500
1!
1)
b110010 6
#253000
r2.53999999999999 %
0!
0)
#253500
1!
1)
b110011 6
#254000
r2.54999999999999 %
0!
0)
#254500
1!
1)
b110100 6
#255000
r2.559999999999989 %
0!
0)
#255500
1!
1)
b110101 6
#256000
r2.569999999999989 %
0!
0)
#256500
1!
1)
b110110 6
#257000
r2.579999999999989 %
0!
0)
#257500
1!
1)
b110111 6
#258000
r2.589999999999989 %
0!
0)
#258500
1!
1)
b111000 6
#259000
r2.599999999999989 %
0!
0)
#259500
1!
1)
b111001 6
#260000
r2.609999999999988 %
0!
0)
#260500
1!
1)
b111010 6
#261000
r2.619999999999988 %
0!
0)
#261500
1!
1)
b111011 6
#262000
r2.629999999999988 %
0!
0)
#262500
1!
1)
b111100 6
#263000
r2.639999999999988 %
0!
0)
#263500
1!
1)
b111101 6
#264000
r2.649999999999987 %
0!
0)
#264500
1!
1)
b111110 6
#265000
r2.659999999999987 %
0!
0)
#265500
1!
1)
b111111 6
#266000
r2.669999999999987 %
0!
0)
#266500
1!
1)
b1000000 6
#267000
r2.679999999999987 %
0!
0)
#267500
1!
1)
b1000001 6
#268000
r2.689999999999987 %
0!
0)
#268500
1!
1)
b1000010 6
#269000
r2.699999999999986 %
0!
0)
#269500
1!
1)
b1000011 6
#270000
r2.709999999999986 %
0!
0)
#270500
1!
1)
b1000100 6
#271000
r2.719999999999986 %
0!
0)
#271500
1!
1)
b1000101 6
#272000
r2.729999999999986 %
0!
0)
#272500
1!
1)
b1000110 6
#273000
r2.739999999999986 %
0!
0)
#273500
1!
1)
b1000111 6
#274000
r2.749999999999985 %
0!
0)
#274500
1!
1)
b1001000 6
#275000
r2.759999999999985 %
0!
0)
#275500
1!
1)
b1001001 6
#276000
r2.769999999999985 %
0!
0)
#276500
1!
1)
b1001010 6
#277000
r2.779999999999985 %
0!
0)
#277500
1!
1)
b1001011 6
#278000
r2.789999999999984 %
0!
0)
#278500
1!
1)
b1001100 6
#279000
r2.799999999999984 %
0!
0)
#279500
1!
1)
b1001101 6
#280000
r2.809999999999984 %
0!
0)
#280500
1!
1)
b1001110 6
#281000
r2.819999999999984 %
0!
0)
#281500
1!
1)
b1001111 6
#282000
r2.829999999999984 %
0!
0)
#282500
1!
1)
b1010000 6
#283000
r2.839999999999983 %
0!
0)
#283500
1!
1)
b1010001 6
#284000
r2.849999999999983 %
0!
0)
#284500
1!
1)
b1010010 6
#285000
r2.859999999999983 %
0!
0)
#285500
1!
1)
b1010011 6
#286000
r2.869999999999983 %
0!
0)
#286500
1!
1)
b1010100 6
#287000
r2.879999999999983 %
0!
0)
#287500
1!
1)
b1010101 6
#288000
r2.889999999999982 %
0!
0)
#288500
1!
1)
b1010110 6
#289000
r2.899999999999982 %
0!
0)
#289500
1!
1)
b1010111 6
#290000
r2.909999999999982 %
0!
0)
#290500
1!
1)
b1011000 6
#291000
r2.919999999999982 %
0!
0)
#291500
1!
1)
b1011001 6
#292000
r2.929999999999982 %
0!
0)
#292500
1!
1)
b1011010 6
#293000
r2.939999999999981 %
0!
0)
#293500
1!
1)
b1011011 6
#294000
r2.949999999999981 %
0!
0)
#294500
1!
1)
b1011100 6
#295000
r2.959999999999981 %
0!
0)
#295500
1!
1)
b1011101 6
#296000
r2.969999999999981 %
0!
0)
#296500
1!
1)
b1011110 6
#297000
r2.97999999999998 %
0!
0)
#297500
1!
1)
b1011111 6
#298000
r2.98999999999998 %
0!
0)
#298500
1!
1)
b1100000 6
#299000
r2.99999999999998 %
0!
0)
#299500
1!
1)
b1100001 6
#300000
r3.00999999999998 %
0!
0)
#300500
1!
1)
b1100010 6
#301000
r3.01999999999998 %
0!
0)
#301500
1!
1)
b1100011 6
#302000
r3.029999999999979 %
0!
0)
#302500
1!
1)
b1100100 6
#303000
r3.039999999999979 %
0!
0)
#303500
1!
1)
b0 6
#304000
r3.049999999999979 %
0!
0)
#304500
1!
1)
b1 6
#305000
r3.059999999999979 %
0!
0)
#305500
1!
1)
b10 6
#306000
r3.069999999999979 %
0!
0)
#306500
1!
1)
b11 6
#307000
r3.079999999999978 %
0!
0)
#307500
1!
1)
b100 6
#308000
r3.089999999999978 %
0!
0)
#308500
1!
1)
b101 6
#309000
r3.099999999999978 %
0!
0)
#309500
1!
1)
b110 6
#310000
r3.109999999999978 %
0!
0)
#310500
1!
1)
b111 6
#311000
r3.119999999999977 %
0!
0)
#311500
1!
1)
b1000 6
#312000
r3.129999999999977 %
0!
0)
#312500
1!
1)
b1001 6
#313000
r3.139999999999977 %
0!
0)
#313500
1!
1)
b1010 6
#314000
r3.149999999999977 %
0!
0)
#314500
1!
1)
b1011 6
#315000
r3.159999999999977 %
0!
0)
#315500
1!
1)
b1100 6
#316000
r3.169999999999976 %
0!
0)
#316500
1!
1)
b1101 6
#317000
r3.179999999999976 %
0!
0)
#317500
1!
1)
b1110 6
#318000
r3.189999999999976 %
0!
0)
#318500
1!
1)
b1111 6
#319000
r3.199999999999976 %
0!
0)
#319500
1!
1)
b10000 6
#320000
r3.209999999999976 %
0!
0)
#320500
1!
1)
b10001 6
#321000
r3.219999999999975 %
0!
0)
#321500
1!
1)
b10010 6
#322000
r3.229999999999975 %
0!
0)
#322500
1!
1)
b10011 6
#323000
r3.239999999999975 %
0!
0)
#323500
1!
1)
b10100 6
#324000
r3.249999999999975 %
0!
0)
#324500
1!
1)
b10101 6
#325000
r3.259999999999974 %
0!
0)
#325500
1!
1)
b10110 6
#326000
r3.269999999999974 %
0!
0)
#326500
1!
1)
b10111 6
#327000
r3.279999999999974 %
0!
0)
#327500
1!
1)
b11000 6
#328000
r3.289999999999974 %
0!
0)
#328500
1!
1)
b11001 6
#329000
r3.299999999999974 %
0!
0)
#329500
1!
1)
b11010 6
#330000
r3.309999999999973 %
0!
0)
#330500
1!
1)
b11011 6
#331000
r3.319999999999973 %
0!
0)
#331500
1!
1)
b11100 6
#332000
r3.329999999999973 %
0!
0)
#332500
1!
1)
b11101 6
#333000
r3.339999999999973 %
0!
0)
#333500
1!
1)
b11110 6
#334000
r3.349999999999973 %
0!
0)
#334500
1!
1)
b11111 6
#335000
r3.359999999999972 %
0!
0)
#335500
1!
1)
b100000 6
#336000
r3.369999999999972 %
0!
0)
#336500
1!
1)
b100001 6
#337000
r3.379999999999972 %
0!
0)
#337500
1!
1)
b100010 6
#338000
r3.389999999999972 %
0!
0)
#338500
1!
1)
b100011 6
#339000
r3.399999999999971 %
0!
0)
#339500
1!
1)
b100100 6
#340000
r3.409999999999971 %
0!
0)
#340500
1!
1)
b100101 6
#341000
r3.419999999999971 %
0!
0)
#341500
1!
1)
b100110 6
#342000
r3.429999999999971 %
0!
0)
#342500
1!
1)
b100111 6
#343000
r3.439999999999971 %
0!
0)
#343500
1!
1)
b101000 6
#344000
r3.44999999999997 %
0!
0)
#344500
1!
1)
b101001 6
#345000
r3.45999999999997 %
0!
0)
#345500
1!
1)
b101010 6
#346000
r3.46999999999997 %
0!
0)
#346500
1!
1)
b101011 6
#347000
r3.47999999999997 %
0!
0)
#347500
1!
1)
b101100 6
#348000
r3.48999999999997 %
0!
0)
#348500
1!
1)
b101101 6
#349000
r3.499999999999969 %
0!
0)
#349500
1!
1)
b101110 6
#350000
r3.509999999999969 %
0!
0)
#350500
1!
1)
b101111 6
#351000
r3.519999999999969 %
0!
0)
#351500
1!
1)
b110000 6
#352000
r3.529999999999969 %
0!
0)
#352500
1!
1)
b110001 6
#353000
r3.539999999999969 %
0!
0)
#353500
1!
1)
b110010 6
#354000
r3.549999999999968 %
0!
0)
#354500
1!
1)
b110011 6
#355000
r3.559999999999968 %
0!
0)
#355500
1!
1)
b110100 6
#356000
r3.569999999999968 %
0!
0)
#356500
1!
1)
b110101 6
#357000
r3.579999999999968 %
0!
0)
#357500
1!
1)
b110110 6
#358000
r3.589999999999967 %
0!
0)
#358500
1!
1)
b110111 6
#359000
r3.599999999999967 %
0!
0)
#359500
1!
1)
b111000 6
#360000
r3.609999999999967 %
0!
0)
#360500
1!
1)
b111001 6
#361000
r3.619999999999967 %
0!
0)
#361500
1!
1)
b111010 6
#362000
r3.629999999999967 %
0!
0)
#362500
1!
1)
b111011 6
#363000
r3.639999999999966 %
0!
0)
#363500
1!
1)
b111100 6
#364000
r3.649999999999966 %
0!
0)
#364500
1!
1)
b111101 6
#365000
r3.659999999999966 %
0!
0)
#365500
1!
1)
b111110 6
#366000
r3.669999999999966 %
0!
0)
#366500
1!
1)
b111111 6
#367000
r3.679999999999966 %
0!
0)
#367500
1!
1)
b1000000 6
#368000
r3.689999999999965 %
0!
0)
#368500
1!
1)
b1000001 6
#369000
r3.699999999999965 %
0!
0)
#369500
1!
1)
b1000010 6
#370000
r3.709999999999965 %
0!
0)
#370500
1!
1)
b1000011 6
#371000
r3.719999999999965 %
0!
0)
#371500
1!
1)
b1000100 6
#372000
r3.729999999999964 %
0!
0)
#372500
1!
1)
b1000101 6
#373000
r3.739999999999964 %
0!
0)
#373500
1!
1)
b1000110 6
#374000
r3.749999999999964 %
0!
0)
#374500
1!
1)
b1000111 6
#375000
r3.759999999999964 %
0!
0)
#375500
1!
1)
b1001000 6
#376000
r3.769999999999964 %
0!
0)
#376500
1!
1)
b1001001 6
#377000
r3.779999999999963 %
0!
0)
#377500
1!
1)
b1001010 6
#378000
r3.789999999999963 %
0!
0)
#378500
1!
1)
b1001011 6
#379000
r3.799999999999963 %
0!
0)
#379500
1!
1)
b1001100 6
#380000
r3.809999999999963 %
0!
0)
#380500
1!
1)
b1001101 6
#381000
r3.819999999999963 %
0!
0)
#381500
1!
1)
b1001110 6
#382000
r3.829999999999962 %
0!
0)
#382500
1!
1)
b1001111 6
#383000
r3.839999999999962 %
0!
0)
#383500
1!
1)
b1010000 6
#384000
r3.849999999999962 %
0!
0)
#384500
1!
1)
b1010001 6
